info face="阿里巴巴普惠体 M" size=120 bold=0 italic=0 charset="" unicode=1 stretchH=100 smooth=1 aa=1 padding=3,3,3,3 spacing=3,3 outline=0
common lineHeight=119 base=91 scaleW=650 scaleH=512 pages=1 packed=0 alphaChnl=0 redChnl=4 greenChnl=4 blueChnl=4
page id=0 file="font_0.png"
chars count=85
char id=32   x=637   y=76    width=9     height=7     xoffset=-4    yoffset=115   xadvance=22    page=0  chnl=15
char id=33   x=614   y=76    width=20    height=68    xoffset=6     yoffset=27    xadvance=32    page=0  chnl=15
char id=35   x=399   y=228   width=56    height=67    xoffset=-2    yoffset=27    xadvance=52    page=0  chnl=15
char id=36   x=181   y=0     width=48    height=87    xoffset=1     yoffset=19    xadvance=51    page=0  chnl=15
char id=37   x=303   y=85    width=68    height=69    xoffset=2     yoffset=26    xadvance=72    page=0  chnl=15
char id=38   x=438   y=77    width=60    height=69    xoffset=-1    yoffset=26    xadvance=56    page=0  chnl=15
char id=40   x=0     y=0     width=32    height=91    xoffset=2     yoffset=21    xadvance=33    page=0  chnl=15
char id=41   x=35    y=0     width=32    height=91    xoffset=0     yoffset=21    xadvance=33    page=0  chnl=15
char id=42   x=90    y=440   width=41    height=39    xoffset=-1    yoffset=21    xadvance=39    page=0  chnl=15
char id=43   x=35    y=440   width=52    height=51    xoffset=-1    yoffset=39    xadvance=50    page=0  chnl=15
char id=44   x=619   y=347   width=26    height=31    xoffset=-1    yoffset=75    xadvance=28    page=0  chnl=15
char id=45   x=267   y=438   width=33    height=16    xoffset=3     yoffset=56    xadvance=38    page=0  chnl=15
char id=46   x=244   y=438   width=20    height=21    xoffset=4     yoffset=74    xadvance=28    page=0  chnl=15
char id=47   x=0     y=94    width=39    height=73    xoffset=2     yoffset=24    xadvance=44    page=0  chnl=15
char id=48   x=105   y=169   width=49    height=69    xoffset=1     yoffset=26    xadvance=51    page=0  chnl=15
char id=49   x=465   y=297   width=33    height=67    xoffset=5     yoffset=27    xadvance=51    page=0  chnl=15
char id=50   x=409   y=156   width=49    height=68    xoffset=1     yoffset=26    xadvance=51    page=0  chnl=15
char id=51   x=260   y=162   width=45    height=69    xoffset=3     yoffset=26    xadvance=51    page=0  chnl=15
char id=52   x=115   y=312   width=52    height=67    xoffset=-1    yoffset=27    xadvance=51    page=0  chnl=15
char id=53   x=461   y=149   width=45    height=68    xoffset=4     yoffset=27    xadvance=51    page=0  chnl=15
char id=54   x=157   y=169   width=49    height=69    xoffset=1     yoffset=26    xadvance=51    page=0  chnl=15
char id=55   x=276   y=304   width=48    height=67    xoffset=1     yoffset=27    xadvance=51    page=0  chnl=15
char id=56   x=560   y=76    width=51    height=69    xoffset=0     yoffset=26    xadvance=51    page=0  chnl=15
char id=57   x=53    y=170   width=49    height=69    xoffset=1     yoffset=26    xadvance=51    page=0  chnl=15
char id=58   x=614   y=289   width=21    height=55    xoffset=7     yoffset=40    xadvance=34    page=0  chnl=15
char id=61   x=134   y=440   width=52    height=38    xoffset=-1    yoffset=46    xadvance=50    page=0  chnl=15
char id=63   x=308   y=157   width=40    height=69    xoffset=0     yoffset=26    xadvance=39    page=0  chnl=15
char id=65   x=0     y=242   width=68    height=67    xoffset=-3    yoffset=27    xadvance=61    page=0  chnl=15
char id=66   x=597   y=148   width=50    height=67    xoffset=4     yoffset=27    xadvance=56    page=0  chnl=15
char id=67   x=0     y=170   width=50    height=69    xoffset=2     yoffset=26    xadvance=52    page=0  chnl=15
char id=68   x=458   y=227   width=56    height=67    xoffset=4     yoffset=27    xadvance=62    page=0  chnl=15
char id=69   x=327   y=304   width=44    height=67    xoffset=4     yoffset=27    xadvance=49    page=0  chnl=15
char id=70   x=420   y=298   width=42    height=67    xoffset=4     yoffset=27    xadvance=47    page=0  chnl=15
char id=71   x=501   y=77    width=56    height=69    xoffset=2     yoffset=26    xadvance=60    page=0  chnl=15
char id=72   x=575   y=219   width=55    height=67    xoffset=4     yoffset=27    xadvance=63    page=0  chnl=15
char id=73   x=501   y=297   width=18    height=67    xoffset=4     yoffset=27    xadvance=26    page=0  chnl=15
char id=74   x=232   y=0     width=33    height=84    xoffset=-11   yoffset=27    xadvance=25    page=0  chnl=15
char id=75   x=517   y=219   width=55    height=67    xoffset=4     yoffset=27    xadvance=56    page=0  chnl=15
char id=76   x=374   y=299   width=43    height=67    xoffset=4     yoffset=27    xadvance=45    page=0  chnl=15
char id=77   x=71    y=242   width=68    height=67    xoffset=4     yoffset=27    xadvance=75    page=0  chnl=15
char id=78   x=338   y=229   width=58    height=67    xoffset=4     yoffset=27    xadvance=65    page=0  chnl=15
char id=79   x=374   y=84    width=61    height=69    xoffset=2     yoffset=26    xadvance=65    page=0  chnl=15
char id=80   x=224   y=311   width=49    height=67    xoffset=4     yoffset=27    xadvance=54    page=0  chnl=15
char id=81   x=319   y=0     width=61    height=81    xoffset=2     yoffset=26    xadvance=65    page=0  chnl=15
char id=82   x=58    y=312   width=54    height=67    xoffset=4     yoffset=27    xadvance=56    page=0  chnl=15
char id=83   x=209   y=165   width=48    height=69    xoffset=1     yoffset=26    xadvance=50    page=0  chnl=15
char id=84   x=170   y=311   width=51    height=67    xoffset=-2    yoffset=27    xadvance=47    page=0  chnl=15
char id=85   x=351   y=157   width=55    height=68    xoffset=4     yoffset=27    xadvance=63    page=0  chnl=15
char id=86   x=142   y=241   width=63    height=67    xoffset=-2    yoffset=27    xadvance=58    page=0  chnl=15
char id=87   x=509   y=149   width=85    height=67    xoffset=-2    yoffset=27    xadvance=81    page=0  chnl=15
char id=88   x=208   y=241   width=62    height=67    xoffset=-2    yoffset=27    xadvance=58    page=0  chnl=15
char id=89   x=273   y=234   width=62    height=67    xoffset=-3    yoffset=27    xadvance=56    page=0  chnl=15
char id=90   x=0     y=312   width=55    height=67    xoffset=1     yoffset=27    xadvance=56    page=0  chnl=15
char id=91   x=104   y=0     width=26    height=91    xoffset=3     yoffset=21    xadvance=28    page=0  chnl=15
char id=92   x=268   y=0     width=48    height=82    xoffset=-2    yoffset=21    xadvance=44    page=0  chnl=15
char id=93   x=133   y=0     width=26    height=91    xoffset=-1    yoffset=21    xadvance=28    page=0  chnl=15
char id=95   x=303   y=438   width=50    height=15    xoffset=-3    yoffset=98    xadvance=44    page=0  chnl=15
char id=97   x=52    y=382   width=49    height=55    xoffset=1     yoffset=40    xadvance=54    page=0  chnl=15
char id=98   x=437   y=0     width=51    height=74    xoffset=4     yoffset=21    xadvance=56    page=0  chnl=15
char id=99   x=155   y=382   width=42    height=55    xoffset=1     yoffset=40    xadvance=43    page=0  chnl=15
char id=100  x=383   y=0     width=51    height=74    xoffset=1     yoffset=21    xadvance=56    page=0  chnl=15
char id=101  x=0     y=382   width=49    height=55    xoffset=1     yoffset=40    xadvance=51    page=0  chnl=15
char id=102  x=42    y=94    width=37    height=73    xoffset=-2    yoffset=21    xadvance=31    page=0  chnl=15
char id=103  x=140   y=94    width=52    height=72    xoffset=1     yoffset=40    xadvance=56    page=0  chnl=15
char id=104  x=519   y=0     width=48    height=73    xoffset=4     yoffset=21    xadvance=55    page=0  chnl=15
char id=105  x=620   y=0     width=19    height=73    xoffset=3     yoffset=21    xadvance=24    page=0  chnl=15
char id=106  x=70    y=0     width=31    height=91    xoffset=-9    yoffset=21    xadvance=24    page=0  chnl=15
char id=107  x=570   y=0     width=47    height=73    xoffset=4     yoffset=21    xadvance=48    page=0  chnl=15
char id=108  x=491   y=0     width=25    height=74    xoffset=3     yoffset=21    xadvance=26    page=0  chnl=15
char id=109  x=325   y=374   width=75    height=54    xoffset=4     yoffset=40    xadvance=81    page=0  chnl=15
char id=110  x=519   y=367   width=48    height=54    xoffset=4     yoffset=40    xadvance=55    page=0  chnl=15
char id=111  x=559   y=289   width=52    height=55    xoffset=1     yoffset=40    xadvance=54    page=0  chnl=15
char id=112  x=249   y=87    width=51    height=72    xoffset=4     yoffset=40    xadvance=56    page=0  chnl=15
char id=113  x=195   y=90    width=51    height=72    xoffset=1     yoffset=40    xadvance=56    page=0  chnl=15
char id=114  x=0     y=440   width=32    height=54    xoffset=4     yoffset=40    xadvance=34    page=0  chnl=15
char id=115  x=200   y=381   width=40    height=55    xoffset=1     yoffset=40    xadvance=42    page=0  chnl=15
char id=116  x=522   y=289   width=34    height=66    xoffset=-2    yoffset=29    xadvance=31    page=0  chnl=15
char id=117  x=104   y=382   width=48    height=55    xoffset=3     yoffset=40    xadvance=54    page=0  chnl=15
char id=118  x=403   y=369   width=55    height=54    xoffset=-3    yoffset=40    xadvance=49    page=0  chnl=15
char id=119  x=243   y=381   width=79    height=54    xoffset=-2    yoffset=40    xadvance=75    page=0  chnl=15
char id=120  x=461   y=368   width=55    height=54    xoffset=-3    yoffset=40    xadvance=49    page=0  chnl=15
char id=121  x=82    y=94    width=55    height=72    xoffset=-3    yoffset=40    xadvance=49    page=0  chnl=15
char id=122  x=570   y=347   width=46    height=54    xoffset=1     yoffset=40    xadvance=46    page=0  chnl=15
char id=124  x=162   y=0     width=16    height=91    xoffset=1     yoffset=21    xadvance=18    page=0  chnl=15
char id=126  x=189   y=440   width=52    height=23    xoffset=-1    yoffset=53    xadvance=50    page=0  chnl=15
kernings count=466
kerning first=122 second=84  amount=-5  
kerning first=121 second=113 amount=-1  
kerning first=121 second=111 amount=-1  
kerning first=121 second=101 amount=-1  
kerning first=121 second=100 amount=-1  
kerning first=121 second=99  amount=-1  
kerning first=121 second=97  amount=-3  
kerning first=121 second=88  amount=-2  
kerning first=121 second=84  amount=-2  
kerning first=121 second=46  amount=-8  
kerning first=121 second=44  amount=-8  
kerning first=120 second=117 amount=-1  
kerning first=120 second=113 amount=-2  
kerning first=120 second=111 amount=-2  
kerning first=120 second=108 amount=-2  
kerning first=120 second=103 amount=-1  
kerning first=120 second=101 amount=-2  
kerning first=120 second=100 amount=-2  
kerning first=120 second=99  amount=-2  
kerning first=120 second=97  amount=-2  
kerning first=120 second=87  amount=-2  
kerning first=120 second=85  amount=-1  
kerning first=120 second=84  amount=-2  
kerning first=119 second=97  amount=-3  
kerning first=119 second=88  amount=-2  
kerning first=119 second=84  amount=-1  
kerning first=119 second=46  amount=-5  
kerning first=119 second=44  amount=-5  
kerning first=118 second=113 amount=-1  
kerning first=118 second=111 amount=-1  
kerning first=118 second=101 amount=-1  
kerning first=118 second=100 amount=-1  
kerning first=118 second=99  amount=-1  
kerning first=118 second=97  amount=-3  
kerning first=118 second=88  amount=-2  
kerning first=118 second=84  amount=-2  
kerning first=40  second=106 amount=5   
kerning first=118 second=46  amount=-8  
kerning first=118 second=44  amount=-8  
kerning first=117 second=89  amount=-1  
kerning first=117 second=84  amount=-3  
kerning first=116 second=102 amount=1   
kerning first=115 second=121 amount=-1  
kerning first=44  second=49  amount=-12 
kerning first=44  second=55  amount=-5  
kerning first=44  second=57  amount=-3  
kerning first=44  second=67  amount=-5  
kerning first=44  second=71  amount=-5  
kerning first=44  second=79  amount=-5  
kerning first=44  second=81  amount=-5  
kerning first=44  second=99  amount=-3  
kerning first=44  second=100 amount=-3  
kerning first=44  second=101 amount=-3  
kerning first=44  second=111 amount=-3  
kerning first=44  second=113 amount=-3  
kerning first=115 second=120 amount=-1  
kerning first=115 second=118 amount=-1  
kerning first=115 second=89  amount=-5  
kerning first=115 second=88  amount=-1  
kerning first=115 second=87  amount=-2  
kerning first=115 second=86  amount=-2  
kerning first=115 second=84  amount=-5  
kerning first=114 second=116 amount=2   
kerning first=114 second=113 amount=-1  
kerning first=114 second=111 amount=-1  
kerning first=114 second=102 amount=1   
kerning first=114 second=101 amount=-1  
kerning first=114 second=100 amount=-1  
kerning first=114 second=99  amount=-1  
kerning first=114 second=97  amount=-4  
kerning first=46  second=49  amount=-12 
kerning first=46  second=55  amount=-5  
kerning first=46  second=57  amount=-3  
kerning first=46  second=67  amount=-5  
kerning first=46  second=71  amount=-5  
kerning first=46  second=79  amount=-5  
kerning first=46  second=81  amount=-5  
kerning first=46  second=99  amount=-3  
kerning first=46  second=100 amount=-3  
kerning first=46  second=101 amount=-3  
kerning first=46  second=111 amount=-3  
kerning first=46  second=113 amount=-3  
kerning first=114 second=46  amount=-8  
kerning first=114 second=44  amount=-8  
kerning first=113 second=106 amount=2   
kerning first=113 second=89  amount=-1  
kerning first=113 second=84  amount=-1  
kerning first=112 second=121 amount=-1  
kerning first=112 second=120 amount=-2  
kerning first=112 second=118 amount=-1  
kerning first=112 second=89  amount=-5  
kerning first=112 second=88  amount=-3  
kerning first=112 second=87  amount=-2  
kerning first=112 second=86  amount=-3  
kerning first=112 second=84  amount=-5  
kerning first=47  second=47  amount=-10 
kerning first=49  second=44  amount=-7  
kerning first=49  second=46  amount=-7  
kerning first=49  second=58  amount=-8  
kerning first=112 second=46  amount=-3  
kerning first=112 second=44  amount=-3  
kerning first=55  second=44  amount=-14 
kerning first=55  second=46  amount=-14 
kerning first=55  second=58  amount=-7  
kerning first=111 second=121 amount=-1  
kerning first=111 second=120 amount=-2  
kerning first=58  second=49  amount=-6  
kerning first=58  second=55  amount=-5  
kerning first=111 second=118 amount=-1  
kerning first=111 second=89  amount=-5  
kerning first=111 second=88  amount=-3  
kerning first=111 second=87  amount=-2  
kerning first=65  second=67  amount=-1  
kerning first=65  second=71  amount=-1  
kerning first=65  second=79  amount=-1  
kerning first=65  second=81  amount=-1  
kerning first=65  second=84  amount=-7  
kerning first=65  second=85  amount=-1  
kerning first=65  second=86  amount=-6  
kerning first=65  second=87  amount=-2  
kerning first=65  second=89  amount=-8  
kerning first=65  second=102 amount=-2  
kerning first=65  second=108 amount=-1  
kerning first=65  second=116 amount=-2  
kerning first=65  second=118 amount=-2  
kerning first=65  second=121 amount=-2  
kerning first=111 second=86  amount=-3  
kerning first=111 second=84  amount=-5  
kerning first=111 second=46  amount=-3  
kerning first=111 second=44  amount=-3  
kerning first=110 second=121 amount=-1  
kerning first=110 second=118 amount=-1  
kerning first=110 second=89  amount=-2  
kerning first=110 second=84  amount=-3  
kerning first=109 second=121 amount=-1  
kerning first=109 second=118 amount=-1  
kerning first=109 second=89  amount=-2  
kerning first=109 second=84  amount=-3  
kerning first=108 second=121 amount=-1  
kerning first=108 second=119 amount=-1  
kerning first=108 second=118 amount=-1  
kerning first=108 second=102 amount=-2  
kerning first=107 second=117 amount=-1  
kerning first=107 second=113 amount=-2  
kerning first=107 second=111 amount=-2  
kerning first=66  second=67  amount=-1  
kerning first=66  second=71  amount=-1  
kerning first=66  second=79  amount=-1  
kerning first=66  second=81  amount=-1  
kerning first=66  second=84  amount=-3  
kerning first=66  second=86  amount=-2  
kerning first=66  second=88  amount=-2  
kerning first=66  second=89  amount=-2  
kerning first=107 second=108 amount=-2  
kerning first=107 second=103 amount=-1  
kerning first=107 second=101 amount=-2  
kerning first=107 second=100 amount=-2  
kerning first=107 second=99  amount=-2  
kerning first=107 second=97  amount=-2  
kerning first=107 second=87  amount=-2  
kerning first=107 second=85  amount=-1  
kerning first=107 second=84  amount=-2  
kerning first=106 second=84  amount=-2  
kerning first=105 second=93  amount=5   
kerning first=105 second=84  amount=-2  
kerning first=105 second=63  amount=3   
kerning first=105 second=41  amount=2   
kerning first=68  second=44  amount=-5  
kerning first=68  second=46  amount=-5  
kerning first=68  second=65  amount=-2  
kerning first=68  second=84  amount=-3  
kerning first=68  second=86  amount=-3  
kerning first=68  second=87  amount=-1  
kerning first=68  second=88  amount=-2  
kerning first=68  second=89  amount=-3  
kerning first=68  second=90  amount=-2  
kerning first=68  second=97  amount=-2  
kerning first=104 second=121 amount=-1  
kerning first=104 second=118 amount=-1  
kerning first=104 second=89  amount=-2  
kerning first=104 second=84  amount=-3  
kerning first=102 second=116 amount=1   
kerning first=102 second=115 amount=-1  
kerning first=102 second=113 amount=-1  
kerning first=102 second=111 amount=-1  
kerning first=102 second=108 amount=-1  
kerning first=102 second=107 amount=-1  
kerning first=102 second=106 amount=-1  
kerning first=102 second=105 amount=-1  
kerning first=102 second=104 amount=-1  
kerning first=102 second=103 amount=-2  
kerning first=102 second=102 amount=1   
kerning first=102 second=101 amount=-1  
kerning first=102 second=100 amount=-1  
kerning first=102 second=99  amount=-1  
kerning first=69  second=106 amount=1   
kerning first=102 second=97  amount=-2  
kerning first=102 second=93  amount=3   
kerning first=102 second=89  amount=1   
kerning first=70  second=44  amount=-13 
kerning first=70  second=46  amount=-13 
kerning first=70  second=65  amount=-3  
kerning first=70  second=97  amount=-5  
kerning first=70  second=104 amount=1   
kerning first=70  second=107 amount=1   
kerning first=102 second=88  amount=2   
kerning first=102 second=87  amount=2   
kerning first=102 second=86  amount=2   
kerning first=102 second=84  amount=3   
kerning first=102 second=63  amount=3   
kerning first=102 second=46  amount=-1  
kerning first=102 second=44  amount=-1  
kerning first=102 second=42  amount=6   
kerning first=102 second=41  amount=1   
kerning first=101 second=106 amount=2   
kerning first=101 second=89  amount=-3  
kerning first=101 second=84  amount=-4  
kerning first=101 second=46  amount=-2  
kerning first=101 second=44  amount=-2  
kerning first=98  second=121 amount=-1  
kerning first=98  second=120 amount=-2  
kerning first=98  second=118 amount=-1  
kerning first=98  second=89  amount=-5  
kerning first=98  second=88  amount=-3  
kerning first=98  second=87  amount=-2  
kerning first=98  second=86  amount=-3  
kerning first=98  second=84  amount=-5  
kerning first=71  second=86  amount=-2  
kerning first=71  second=89  amount=-3  
kerning first=98  second=46  amount=-3  
kerning first=98  second=44  amount=-3  
kerning first=97  second=121 amount=-1  
kerning first=97  second=119 amount=-1  
kerning first=74  second=74  amount=1   
kerning first=97  second=118 amount=-1  
kerning first=97  second=89  amount=-7  
kerning first=97  second=86  amount=-2  
kerning first=97  second=84  amount=-5  
kerning first=75  second=65  amount=-1  
kerning first=75  second=67  amount=-2  
kerning first=75  second=71  amount=-2  
kerning first=75  second=79  amount=-2  
kerning first=75  second=81  amount=-2  
kerning first=75  second=84  amount=-1  
kerning first=75  second=85  amount=-3  
kerning first=75  second=86  amount=-2  
kerning first=75  second=87  amount=-2  
kerning first=75  second=89  amount=-3  
kerning first=75  second=99  amount=-3  
kerning first=75  second=100 amount=-3  
kerning first=75  second=101 amount=-3  
kerning first=75  second=103 amount=-3  
kerning first=75  second=108 amount=-3  
kerning first=75  second=111 amount=-3  
kerning first=75  second=113 amount=-3  
kerning first=75  second=115 amount=-1  
kerning first=75  second=116 amount=-1  
kerning first=75  second=117 amount=-3  
kerning first=75  second=118 amount=-5  
kerning first=75  second=119 amount=-3  
kerning first=75  second=121 amount=-5  
kerning first=91  second=106 amount=7   
kerning first=90  second=81  amount=-2  
kerning first=90  second=79  amount=-2  
kerning first=90  second=71  amount=-2  
kerning first=90  second=67  amount=-2  
kerning first=89  second=122 amount=-4  
kerning first=89  second=121 amount=-3  
kerning first=89  second=120 amount=-4  
kerning first=89  second=118 amount=-3  
kerning first=89  second=117 amount=-3  
kerning first=89  second=116 amount=-1  
kerning first=89  second=115 amount=-6  
kerning first=89  second=114 amount=-4  
kerning first=89  second=113 amount=-5  
kerning first=89  second=112 amount=-3  
kerning first=89  second=111 amount=-5  
kerning first=89  second=110 amount=-4  
kerning first=89  second=109 amount=-4  
kerning first=89  second=107 amount=1   
kerning first=89  second=105 amount=-1  
kerning first=89  second=104 amount=1   
kerning first=89  second=103 amount=-5  
kerning first=89  second=102 amount=-1  
kerning first=89  second=101 amount=-5  
kerning first=89  second=100 amount=-5  
kerning first=89  second=99  amount=-5  
kerning first=89  second=97  amount=-9  
kerning first=89  second=83  amount=-1  
kerning first=89  second=81  amount=-3  
kerning first=89  second=79  amount=-3  
kerning first=89  second=71  amount=-3  
kerning first=89  second=67  amount=-3  
kerning first=89  second=65  amount=-8  
kerning first=89  second=58  amount=-5  
kerning first=89  second=46  amount=-14 
kerning first=89  second=44  amount=-14 
kerning first=88  second=121 amount=-5  
kerning first=88  second=119 amount=-3  
kerning first=88  second=118 amount=-5  
kerning first=88  second=117 amount=-3  
kerning first=88  second=116 amount=-1  
kerning first=88  second=115 amount=-1  
kerning first=88  second=113 amount=-3  
kerning first=88  second=111 amount=-3  
kerning first=88  second=108 amount=-3  
kerning first=76  second=65  amount=2   
kerning first=76  second=67  amount=-4  
kerning first=76  second=71  amount=-4  
kerning first=76  second=79  amount=-4  
kerning first=76  second=81  amount=-4  
kerning first=76  second=84  amount=-6  
kerning first=76  second=85  amount=-1  
kerning first=76  second=86  amount=-6  
kerning first=76  second=87  amount=-3  
kerning first=76  second=89  amount=-9  
kerning first=76  second=118 amount=-4  
kerning first=76  second=119 amount=-2  
kerning first=76  second=121 amount=-4  
kerning first=88  second=103 amount=-3  
kerning first=88  second=101 amount=-3  
kerning first=88  second=100 amount=-3  
kerning first=88  second=99  amount=-3  
kerning first=88  second=89  amount=-3  
kerning first=88  second=87  amount=-2  
kerning first=88  second=86  amount=-2  
kerning first=88  second=85  amount=-3  
kerning first=88  second=84  amount=-1  
kerning first=88  second=81  amount=-2  
kerning first=88  second=79  amount=-2  
kerning first=88  second=71  amount=-2  
kerning first=88  second=67  amount=-2  
kerning first=88  second=65  amount=-1  
kerning first=87  second=115 amount=-2  
kerning first=87  second=113 amount=-2  
kerning first=87  second=111 amount=-2  
kerning first=87  second=103 amount=-2  
kerning first=87  second=101 amount=-2  
kerning first=87  second=100 amount=-2  
kerning first=87  second=99  amount=-2  
kerning first=87  second=97  amount=-3  
kerning first=87  second=81  amount=-1  
kerning first=87  second=79  amount=-1  
kerning first=87  second=71  amount=-1  
kerning first=79  second=44  amount=-5  
kerning first=79  second=46  amount=-5  
kerning first=79  second=65  amount=-2  
kerning first=79  second=84  amount=-3  
kerning first=79  second=86  amount=-3  
kerning first=79  second=87  amount=-1  
kerning first=79  second=88  amount=-2  
kerning first=79  second=89  amount=-3  
kerning first=79  second=90  amount=-2  
kerning first=79  second=97  amount=-2  
kerning first=87  second=67  amount=-1  
kerning first=87  second=65  amount=-3  
kerning first=87  second=58  amount=-2  
kerning first=87  second=46  amount=-6  
kerning first=87  second=44  amount=-6  
kerning first=86  second=121 amount=-1  
kerning first=86  second=118 amount=-1  
kerning first=86  second=115 amount=-2  
kerning first=86  second=113 amount=-2  
kerning first=86  second=111 amount=-2  
kerning first=86  second=107 amount=1   
kerning first=86  second=104 amount=1   
kerning first=86  second=103 amount=-2  
kerning first=86  second=101 amount=-2  
kerning first=86  second=100 amount=-2  
kerning first=86  second=99  amount=-2  
kerning first=86  second=97  amount=-5  
kerning first=86  second=83  amount=-1  
kerning first=80  second=44  amount=-16 
kerning first=80  second=46  amount=-16 
kerning first=80  second=65  amount=-5  
kerning first=80  second=84  amount=-2  
kerning first=80  second=86  amount=-1  
kerning first=80  second=87  amount=-1  
kerning first=80  second=88  amount=-4  
kerning first=80  second=89  amount=-2  
kerning first=80  second=90  amount=-3  
kerning first=80  second=97  amount=-5  
kerning first=86  second=81  amount=-3  
kerning first=86  second=79  amount=-3  
kerning first=86  second=71  amount=-3  
kerning first=86  second=67  amount=-3  
kerning first=86  second=65  amount=-6  
kerning first=86  second=58  amount=-4  
kerning first=86  second=46  amount=-12 
kerning first=86  second=44  amount=-12 
kerning first=85  second=120 amount=-1  
kerning first=85  second=88  amount=-1  
kerning first=85  second=65  amount=-1  
kerning first=84  second=122 amount=-5  
kerning first=84  second=121 amount=-2  
kerning first=84  second=120 amount=-2  
kerning first=84  second=119 amount=-1  
kerning first=84  second=118 amount=-2  
kerning first=84  second=117 amount=-6  
kerning first=84  second=116 amount=2   
kerning first=81  second=44  amount=-5  
kerning first=81  second=46  amount=-5  
kerning first=81  second=65  amount=-2  
kerning first=81  second=74  amount=2   
kerning first=81  second=84  amount=-3  
kerning first=81  second=86  amount=-3  
kerning first=81  second=87  amount=-1  
kerning first=81  second=88  amount=-2  
kerning first=81  second=89  amount=-3  
kerning first=81  second=90  amount=-2  
kerning first=81  second=97  amount=-2  
kerning first=84  second=115 amount=-5  
kerning first=84  second=114 amount=-5  
kerning first=84  second=113 amount=-5  
kerning first=84  second=112 amount=-3  
kerning first=84  second=111 amount=-5  
kerning first=84  second=110 amount=-5  
kerning first=84  second=109 amount=-5  
kerning first=84  second=106 amount=-1  
kerning first=84  second=105 amount=-2  
kerning first=84  second=103 amount=-5  
kerning first=84  second=101 amount=-5  
kerning first=84  second=100 amount=-5  
kerning first=84  second=99  amount=-5  
kerning first=84  second=97  amount=-7  
kerning first=84  second=83  amount=-1  
kerning first=84  second=81  amount=-2  
kerning first=84  second=79  amount=-2  
kerning first=84  second=71  amount=-2  
kerning first=82  second=67  amount=-1  
kerning first=82  second=71  amount=-1  
kerning first=82  second=79  amount=-1  
kerning first=82  second=81  amount=-1  
kerning first=82  second=84  amount=-3  
kerning first=82  second=85  amount=-1  
kerning first=82  second=86  amount=-2  
kerning first=82  second=87  amount=-1  
kerning first=82  second=88  amount=-2  
kerning first=82  second=89  amount=-4  
kerning first=82  second=99  amount=-2  
kerning first=82  second=100 amount=-2  
kerning first=82  second=101 amount=-2  
kerning first=82  second=103 amount=-2  
kerning first=82  second=111 amount=-2  
kerning first=82  second=113 amount=-2  
kerning first=82  second=116 amount=-2  
kerning first=82  second=117 amount=-1  
kerning first=82  second=118 amount=-1  
kerning first=82  second=120 amount=2   
kerning first=82  second=121 amount=-1  
kerning first=84  second=67  amount=-2  
kerning first=84  second=65  amount=-7  
kerning first=84  second=46  amount=-13 
kerning first=84  second=44  amount=-13 
kerning first=83  second=121 amount=-2  
kerning first=83  second=120 amount=-1  
kerning first=83  second=119 amount=-1  
kerning first=83  second=118 amount=-2  
kerning first=83  second=116 amount=-1  
kerning first=83  second=89  amount=-2  
kerning first=83  second=87  amount=-1  
kerning first=83  second=86  amount=-2  
kerning first=83  second=84  amount=-1  
kerning first=83  second=83  amount=-1  
kerning first=83  second=46  amount=-2  
kerning first=83  second=44  amount=-2  
